[
    {
       "flight_number":"AS412",
       "contingents":[
          {
             "client_code":"client1",
             "total_seats":1,
             "booked_seats":1
          },
          {
             "client_code":"client2",
             "total_seats":1,
             "booked_seats":1
          },
          {
             "client_code":"client3",
             "total_seats":1,
             "booked_seats":1
          },
          {
             "client_code":"client4",
             "total_seats":1,
             "booked_seats":1
          },
          {
             "client_code":"client5",
             "total_seats":1,
             "booked_seats":1
          },
          {
             "client_code":"client6",
             "total_seats":1,
             "booked_seats":1
          }
       ]
    },
    {
       "flight_number":"AS415",
       "contingents":[
          {
             "client_code":"client7",
             "total_seats":25,
             "booked_seats":3
          },
          {
             "client_code":"client8",
             "total_seats":55,
             "booked_seats":6
          },
          {
             "client_code":"client9",
             "total_seats":85,
             "booked_seats":9
          },
          {
             "client_code":"client10",
             "total_seats":122,
             "booked_seats":13
          },
          {
             "client_code":"client114",
             "total_seats":17,
             "booked_seats":9
          },
          {
             "client_code":"client136",
             "total_seats":58,
             "booked_seats":2
          }
       ]
    },
    {
       "flight_number":"AS417",
       "contingents":[
          {
             "client_code":"client199",
             "total_seats": 13,
             "booked_seats":3
          }
          
       ]
    },
    {
       "flight_number":"AS410",
       "contingents":[
          {
             "client_code":"client122",
             "total_seats":34,
             "booked_seats":4
          }
     
       ]
    }
 ]